…
``` r
read_csv("simple.csv")
```

    ## Rows: 27 Columns: 6
    ## -- Column specification --------------------------------------------------------
    ## Delimiter: ","
    ## chr  (3): operatingunit, site, indicator
    ## dbl  (2): mech_code, value
    ## date (1): date
    ## 
    ## i Use `spec()` to retrieve the full column specification for this data.
    ## i Specify the column types or set `show_col_types = FALSE` to quiet this message.

    ## # A tibble: 27 x 6
    ##    operatingunit site                       mech_code date       indicator value
    ##    <chr>         <chr>                          <dbl> <date>     <chr>     <dbl>
    ##  1 Jupiter       Hypergalaxy Urban Clinic ~     54321 2050-01-01 HTS_TST      47
    ##  2 Jupiter       Hypergalaxy Urban Clinic ~     54321 2050-01-15 HTS_TST      47
    ##  3 Jupiter       Hypergalaxy Urban Clinic ~     54321 2050-01-29 HTS_TST      29
    ##  4 Jupiter       Hypergalaxy Urban Clinic ~     54321 2050-02-12 HTS_TST      44
    ##  5 Jupiter       Hypergalaxy Urban Clinic ~     54321 2050-02-26 HTS_TST      39
    ##  6 Jupiter       Hypergalaxy Urban Clinic ~     54321 2050-03-12 HTS_TST      36
    ##  7 Jupiter       Hypergalaxy Urban Clinic ~     54321 2050-03-26 HTS_TST      42
    ##  8 Jupiter       Hypergalaxy Urban Clinic ~     54321 2050-04-09 HTS_TST      25
    ##  9 Jupiter       Hypergalaxy Urban Clinic ~     54321 2050-04-23 HTS_TST      39
    ## 10 Jupiter       Hypergalaxy Urban Clinic ~     54321 2050-05-07 HTS_TST      41
    ## # ... with 17 more rows
…
    ## Warning: One or more parsing issues, see `problems()` for details

    ## Rows: 27 Columns: 6
    ## -- Column specification --------------------------------------------------------
    ## Delimiter: ","
    ## chr  (3): operatingunit, site, indicator
    ## dbl  (1): mech_code
    ## lgl  (1): value
    ## date (1): date
    ## 
    ## i Use `spec()` to retrieve the full column specification for this data.
    ## i Specify the column types or set `show_col_types = FALSE` to quiet this message.

    ## # A tibble: 27 x 6
    ##    operatingunit site                       mech_code date       indicator value
    ##    <chr>         <chr>                          <dbl> <date>     <chr>     <lgl>
    ##  1 Jupiter       Hypergalaxy Urban Clinic ~     54321 2050-01-01 HTS_TST   NA   
    ##  2 Jupiter       Hypergalaxy Urban Clinic ~     54321 2050-01-15 HTS_TST   NA   
    ##  3 Jupiter       Hypergalaxy Urban Clinic ~     54321 2050-01-29 HTS_TST   NA   
    ##  4 Jupiter       Hypergalaxy Urban Clinic ~     54321 2050-02-12 HTS_TST   NA   
    ##  5 Jupiter       Hypergalaxy Urban Clinic ~     54321 2050-02-26 HTS_TST   NA   
    ##  6 Jupiter       Hypergalaxy Urban Clinic ~     54321 2050-03-12 HTS_TST   NA   
    ##  7 Jupiter       Hypergalaxy Urban Clinic ~     54321 2050-03-26 HTS_TST   NA   
    ##  8 Jupiter       Hypergalaxy Urban Clinic ~     54321 2050-04-09 HTS_TST   NA   
    ##  9 Jupiter       Hypergalaxy Urban Clinic ~     54321 2050-04-23 HTS_TST   NA   
    ## 10 Jupiter       Hypergalaxy Urban Clinic ~     54321 2050-05-07 HTS_TST   NA   
    ## # ... with 17 more rows
…
We can change the column type to avoid any errors with using it in the
dataset and allow us to take advantage of `tidyselect` statements using
`where(is.double)`, which should just specify your targets, results, and
cumulative (assuming we also change `fiscal_year` in the MSD to be
stored as an integer)). We can specify column types by passing a list
into `col_types` to tell it how you want the column read in. Let’s
adjust `mech_code` to be a character (“c” or `col_character`).

``` r
 read_csv("simple.csv",
          col_types = cols(mech_code = "c"))
```

    ## # A tibble: 27 x 6
    ##    operatingunit site                       mech_code date       indicator value
    ##    <chr>         <chr>                      <chr>     <date>     <chr>     <dbl>
    ##  1 Jupiter       Hypergalaxy Urban Clinic ~ 54321     2050-01-01 HTS_TST      47
    ##  2 Jupiter       Hypergalaxy Urban Clinic ~ 54321     2050-01-15 HTS_TST      47
    ##  3 Jupiter       Hypergalaxy Urban Clinic ~ 54321     2050-01-29 HTS_TST      29
    ##  4 Jupiter       Hypergalaxy Urban Clinic ~ 54321     2050-02-12 HTS_TST      44
    ##  5 Jupiter       Hypergalaxy Urban Clinic ~ 54321     2050-02-26 HTS_TST      39
    ##  6 Jupiter       Hypergalaxy Urban Clinic ~ 54321     2050-03-12 HTS_TST      36
    ##  7 Jupiter       Hypergalaxy Urban Clinic ~ 54321     2050-03-26 HTS_TST      42
    ##  8 Jupiter       Hypergalaxy Urban Clinic ~ 54321     2050-04-09 HTS_TST      25
    ##  9 Jupiter       Hypergalaxy Urban Clinic ~ 54321     2050-04-23 HTS_TST      39
    ## 10 Jupiter       Hypergalaxy Urban Clinic ~ 54321     2050-05-07 HTS_TST      41
    ## # ... with 17 more rows

Sometimes the best strategy when there are issues is to read in all the
data as characters and then diagnose when in R. Rather than specify each
column, you can define a default.

``` r
 read_csv("simple.csv",
          col_types = cols(.default = "c"))
```

    ## # A tibble: 27 x 6
    ##    operatingunit site                         mech_code date     indicator value
    ##    <chr>         <chr>                        <chr>     <chr>    <chr>     <chr>
    ##  1 Jupiter       Hypergalaxy Urban Clinic 084 54321     2050-01~ HTS_TST   47   
    ##  2 Jupiter       Hypergalaxy Urban Clinic 084 54321     2050-01~ HTS_TST   47   
    ##  3 Jupiter       Hypergalaxy Urban Clinic 084 54321     2050-01~ HTS_TST   29   
    ##  4 Jupiter       Hypergalaxy Urban Clinic 084 54321     2050-02~ HTS_TST   44   
    ##  5 Jupiter       Hypergalaxy Urban Clinic 084 54321     2050-02~ HTS_TST   39   
    ##  6 Jupiter       Hypergalaxy Urban Clinic 084 54321     2050-03~ HTS_TST   36   
    ##  7 Jupiter       Hypergalaxy Urban Clinic 084 54321     2050-03~ HTS_TST   42   
    ##  8 Jupiter       Hypergalaxy Urban Clinic 084 54321     2050-04~ HTS_TST   25   
    ##  9 Jupiter       Hypergalaxy Urban Clinic 084 54321     2050-04~ HTS_TST   39   
    ## 10 Jupiter       Hypergalaxy Urban Clinic 084 54321     2050-05~ HTS_TST   41   
    ## # ... with 17 more rows
…
``` r
gs4_auth() #only need to authenticate once per session
read_sheet(as_sheets_id("1B_DcG1WqZv6xo_eBBye-Q31tMGq_DjCBcjlWs3xINOw"))
```

    ## v Reading from "simple_gs".

    ## v Range 'simple.csv'.

    ## # A tibble: 27 x 6
    ##    operatingunit site              mech_code date                indicator value
    ##    <chr>         <chr>                 <dbl> <dttm>              <chr>     <dbl>
    ##  1 Jupiter       Hypergalaxy Urba~     54321 2050-01-01 00:00:00 HTS_TST      47
    ##  2 Jupiter       Hypergalaxy Urba~     54321 2050-01-15 00:00:00 HTS_TST      47
    ##  3 Jupiter       Hypergalaxy Urba~     54321 2050-01-29 00:00:00 HTS_TST      29
    ##  4 Jupiter       Hypergalaxy Urba~     54321 2050-02-12 00:00:00 HTS_TST      44
    ##  5 Jupiter       Hypergalaxy Urba~     54321 2050-02-26 00:00:00 HTS_TST      39
    ##  6 Jupiter       Hypergalaxy Urba~     54321 2050-03-12 00:00:00 HTS_TST      36
    ##  7 Jupiter       Hypergalaxy Urba~     54321 2050-03-26 00:00:00 HTS_TST      42
    ##  8 Jupiter       Hypergalaxy Urba~     54321 2050-04-09 00:00:00 HTS_TST      25
    ##  9 Jupiter       Hypergalaxy Urba~     54321 2050-04-23 00:00:00 HTS_TST      39
    ## 10 Jupiter       Hypergalaxy Urba~     54321 2050-05-07 00:00:00 HTS_TST      41
    ## # ... with 17 more rows
…
                      .name_repair = janitor::make_clean_names)) %>% 
  rename(year = x,
         iso = country,
         country = country_2,
         prev_adults_pct = percent_prevalence_adults,
         plhiv_adults =  estimated_plhiv_adults) %>% 
  mutate(across(matches("plhiv"), ~ str_remove_all(. ," ")), 
         across(matches("prev|percent|plhiv"), ~ str_remove_all(., "<")),
         across(.fns = ~ na_if(., "...,..."))) %>% 
  separate(percent_prevalence_bounds, c("prev_lower", "prev_upper"), sep = ",") %>% 
  separate(estimated_plhiv_bounds, c("plhiv_lower", "plhiv_upper"), sep = ",") %>% 
  mutate(across(matches("prev|plhiv"), as.numeric))
```

    ## # A tibble: 172 x 9
    ##    year  iso   country        prev_adults_pct prev_lower prev_upper plhiv_adults
    ##    <chr> <chr> <chr>                    <dbl>      <dbl>      <dbl>        <dbl>
    ##  1 2020  AFG   Afghanistan                0.1        0.1        0.2        11000
    ##  2 2020  AUS   Australia                  0.1        0.1        0.1        30000
    ##  3 2020  BGD   Bangladesh                NA         NA         NA             NA
    ##  4 2020  BTN   Bhutan                     0.2        0.1        0.5         1300
    ##  5 2020  BRN   Brunei Daruss~            NA         NA         NA             NA
    ##  6 2020  KHM   Cambodia                   0.5        0.5        0.6        72000
    ##  7 2020  CHN   China                     NA         NA         NA             NA
    ##  8 2020  PRK   Democratic Pe~            NA         NA         NA             NA
    ##  9 2020  FJI   Fiji                       0.2        0.1        0.4         1200
    ## 10 2020  IND   India                     NA         NA         NA             NA
    ## # ... with 162 more rows, and 2 more variables: plhiv_lower <dbl>,
    ## #   plhiv_upper <dbl>
…
