…
    ## [1] "source_processed"

Additionally, the MSD has more indicators and disaggregates that aren’t
in the Data Pack. To simplify matters, we can subset, or limit, the
dataset to what we have to work with. Luckily we have a table stored in
this packaged called `msd_historic_disagg_mapping` that contains all the
indicators and their disaggregates for COP23 targets in DATIM, as well
as historic results/targets disaggs from FY21 to FY23. We can use this
mapping file to filter down the MSD.

``` r
tameDP::msd_historic_disagg_mapping
```

    ## # A tibble: 163 × 5
    ##    indicator numeratordenom standardizeddisaggregate      fiscal_year kp_disagg
    ##    <chr>     <chr>          <chr>                               <dbl> <lgl>    
    ##  1 AGYW_PREV D              Age/Sex/DREAMSBegun                  2022 FALSE    
    ##  2 AGYW_PREV D              Age/Sex/DREAMSBegun                  2023 FALSE    
    ##  3 AGYW_PREV N              Age/Sex/DREAMSPrimaryComplete        2022 FALSE    
    ##  4 AGYW_PREV N              Age/Sex/DREAMSPrimaryComplete        2023 FALSE    
    ##  5 AGYW_PREV N              Age/Sex/Time/Complete                2021 FALSE    
    ##  6 AGYW_PREV D              Age/Sex/Time/Complete                2021 FALSE    
    ##  7 AGYW_PREV N              Age/Sex/Time/Complete                2022 FALSE    
    ##  8 AGYW_PREV D              Age/Sex/Time/Complete                2022 FALSE    
    ##  9 AGYW_PREV N              Age/Sex/Time/Complete+               2021 FALSE    
    ## 10 AGYW_PREV D              Age/Sex/Time/Complete+               2021 FALSE    
    ## # … with 153 more rows
…
