…
We need to skip quite a few rows, 5 to be exact, since our table header
start on row 6.

``` r
df <- read_excel(
      path = here("2021-03-15",file_name),
      sheet = "Table 5",
      skip = 5)

df
```

    ## # A tibble: 652 x 18
    ##    ...1  ...2  `18-19 years` `20-24 years` `25-29 years` `30-34 years`
    ##    <chr> <chr>         <dbl>         <dbl>         <dbl>         <dbl>
    ##  1 New ~ <NA>           NA            NA            NA            NA  
    ##  2 Banks Tota~        1102          3098          2918          2895  
    ##  3 <NA>  Elig~        1431          4224          4036          4188  
    ##  4 <NA>  Part~          77            73.3          72.3          69.1
    ##  5 <NA>  <NA>           NA            NA            NA            NA  
    ##  6 Bart~ Tota~         977          3047          3231          3678  
    ##  7 <NA>  Elig~        1278          4186          4594          5305  
    ##  8 <NA>  Part~          76.4          72.8          70.3          69.3
    ##  9 <NA>  <NA>           NA            NA            NA            NA  
    ## 10 Benn~ Tota~        1177          3356          3106          3245  
    ## # ... with 642 more rows, and 12 more variables: `35-39 years` <dbl>, `40-44
    ## #   years` <dbl>, `45-49 years` <dbl>, `50-54 years` <dbl>, `55-59
    ## #   years` <dbl>, `60-64 years` <dbl>, `65-69 years` <dbl>, `70-74
    ## #   years` <dbl>, `75-79 years` <dbl>, `80-84 years` <dbl>, `85 years and
    ## #   over` <dbl>, `Total Males(b)` <dbl>
…
Time to handle the areas. Merged cells from Excel are not machine
readable so the the data are unmerged in R and stored in only the first
cell.

``` r
df %>% 
  select(area)
```

    ## # A tibble: 652 x 1
    ##    area                     
    ##    <chr>                    
    ##  1 New South Wales Divisions
    ##  2 Banks                    
    ##  3 <NA>                     
    ##  4 <NA>                     
    ##  5 <NA>                     
    ##  6 Barton                   
    ##  7 <NA>                     
    ##  8 <NA>                     
    ##  9 <NA>                     
    ## 10 Bennelong                
    ## # ... with 642 more rows

We can solve this by using `tidyr::fill()`, which by default will fill
down missing values.

``` r
df <- df %>% 
  fill(area)

df %>% 
  select(area)
```

    ## # A tibble: 652 x 1
    ##    area                     
    ##    <chr>                    
    ##  1 New South Wales Divisions
    ##  2 Banks                    
    ##  3 Banks                    
    ##  4 Banks                    
    ##  5 Banks                    
    ##  6 Barton                   
    ##  7 Barton                   
    ##  8 Barton                   
    ##  9 Barton                   
    ## 10 Bennelong                
    ## # ... with 642 more rows
…
df <- df %>% 
  pivot_wider(names_from = indicator,
              values_from = value) %>% 
  clean_names() %>% 
  mutate(participation_rate_percent = participation_rate_percent/100)

df
```

    ## # A tibble: 2,250 x 7
    ##    division area  sex   age_group total_participa~ eligible_partic~
    ##    <chr>    <chr> <chr> <chr>                <dbl>            <dbl>
    ##  1 New Sou~ Banks Males 18-19                 1102             1431
    ##  2 New Sou~ Banks Males 20-24                 3098             4224
    ##  3 New Sou~ Banks Males 25-29                 2918             4036
    ##  4 New Sou~ Banks Males 30-34                 2895             4188
    ##  5 New Sou~ Banks Males 35-39                 2982             4197
    ##  6 New Sou~ Banks Males 40-44                 3172             4239
    ##  7 New Sou~ Banks Males 45-49                 3477             4419
    ##  8 New Sou~ Banks Males 50-54                 3523             4471
    ##  9 New Sou~ Banks Males 55-59                 3764             4621
    ## 10 New Sou~ Banks Males 60-64                 3297             3948
    ## # ... with 2,240 more rows, and 1 more variable:
    ## #   participation_rate_percent <dbl>
…
  return(df)

}
```

Et voila!

``` r
df_all <- map_dfr(c("Table 5", "Table 6"),
                ~extract_data(file_name, .x))
df_all
```

    ## # A tibble: 4,500 x 7
    ##    division area  sex   age_group total_participa~ eligible_partic~
    ##    <chr>    <chr> <chr> <chr>                <dbl>            <dbl>
    ##  1 New Sou~ Banks Males 18-19                 1102             1431
    ##  2 New Sou~ Banks Males 20-24                 3098             4224
    ##  3 New Sou~ Banks Males 25-29                 2918             4036
    ##  4 New Sou~ Banks Males 30-34                 2895             4188
    ##  5 New Sou~ Banks Males 35-39                 2982             4197
    ##  6 New Sou~ Banks Males 40-44                 3172             4239
    ##  7 New Sou~ Banks Males 45-49                 3477             4419
    ##  8 New Sou~ Banks Males 50-54                 3523             4471
    ##  9 New Sou~ Banks Males 55-59                 3764             4621
    ## 10 New Sou~ Banks Males 60-64                 3297             3948
    ## # ... with 4,490 more rows, and 1 more variable:
    ## #   participation_rate_percent <dbl>
